One-mode EU policy influence network, June 2004 (Christopoulos 2006) — mpn_ryanair • migraph
…
data(mpn_ryanair)

    Format

#> # A labelled, weighted, directed tbl_graph with 20 nodes and 177 arcs
#> # A tibble: 20 x 1
#>   name          
#>   <chr>         
#> 1 1 AER         
#> 2 2 AER         
#> 3 5 AER/COR     
#> 4 7 RYANAIR     
#> 5 8 DG TRANSPORT
#> 6 9 COR         
#> # i 14 more rows
#> # A tibble: 177 x 3
#>    from    to weight
#>   <int> <int>  <dbl>
#> 1     1     2      1
#> 2     1     3      1
#> 3     1     4      1
#> 4     1     5      1
#> 5     1     6      1
#> 6     1     7      1
#> # i 171 more rows
…
