Censuses of nodes' motifs — node_census • migraph
…
#>  5 Jayce    15     5    41     0     0     0     2     1     0     0    13     0
#>  6 Mindy    20     5    41     0     0     0     3     2     0     0    11     0
#>  7 Kiara    28     0    51     0     0     0     0     2     0     0     6     0
#>  8 Quinn    18     0    42     0     0     0     2     1     0     0    18     0
#>  9 Char…    86     2    17     0     0     0     0     0     0     0     0     0
#> 10 Mia      25     6    35     0     0     0     3     3     0     0    15     0
#> 11 Cait…    65     4    36     0     0     0     0     0     0     0     0     0
#> 12 Nata…    72     3    30     0     0     0     0     0     0     0     0     0
#> 13 Vero…    76     3    26     0     0     0     0     0     0     0     0     0
#> 14 Velma    56     2    47     0     0     0     0     0     0     0     0     0
#> 15 Cody     58     5    42     0     0     0     0     0     0     0     0     0
#> 16 Bray…     0     0     0     0     0     0     0     0     0     0    44     0
#> # ℹ 4 more variables: X120U <dbl>, X120C <dbl>, X210 <dbl>, X300 <dbl>
node_quad_census(manynet::ison_southern_women)
#> # A tibble: 32 × 13
#>    names    E4   I41   I40    H4   L42   L41   L40   U42   U41   Y43   Y41   X04
#>    <chr> <dbl> <dbl> <dbl> <dbl> <dbl> <dbl> <dbl> <dbl> <dbl> <dbl> <dbl> <dbl>
#>  1 EVEL…  1402  1046   474   202   397   692   148   200    78    56   190    75
#>  2 LAURA  1539   986   579   202   323   659   182   134    85    35   168    68
#>  3 THER…  1499   975   434   147   364   784    91   217    77    56   225    91
#>  4 BREN…  1559   968   562   198   320   682   179   134    82    35   170    71
#>  5 CHAR…  1945   763   972   171   117   419   359    30    89     4    70    21
#>  6 FRAN…  2063   652   944   126   102   502   269    36   102     4   130    30
#>  7 ELEA…  2122   598   930    98    93   546   224    42   114     4   156    33
#>  8 PEARL  2313   439  1089    65    42   448   252    28   112     1   154    17
#>  9 RUTH   2180   549   918    73    80   577   178    56   123     4   190    32
#> 10 VERNE  2166   561   920    82    83   567   190    53   118     4   184    32
#> # ℹ 22 more rows
node_path_census(manynet::ison_adolescents)
#> # A tibble: 8 × 9
#>   names Betty   Sue Alice  Jane  Dale   Pam Carol  Tina
#>   <chr> <dbl> <dbl> <dbl> <dbl> <dbl> <dbl> <dbl> <dbl>
#> 1 Betty     0     1     2     3     2     2     3     4
#> 2 Sue       1     0     1     2     1     1     2     3
#> 3 Alice     2     1     0     1     1     1     2     3
#> 4 Jane      3     2     1     0     1     2     3     4
#> 5 Dale      2     1     1     1     0     2     3     4
#> 6 Pam       2     1     1     2     2     0     1     2
#> 7 Carol     3     2     2     3     3     1     0     1
#> 8 Tina      4     3     3     4     4     2     1     0
node_path_census(manynet::ison_southern_women)
#> # A tibble: 32 × 33
#>    names EVELYN LAURA THERESA BRENDA CHARLOTTE FRANCES ELEANOR PEARL  RUTH VERNE
#>    <chr>  <dbl> <dbl>   <dbl>  <dbl>     <dbl>   <dbl>   <dbl> <dbl> <dbl> <dbl>
#>  1 EVEL…      0     2       2      2         2       2       2     2     2     2
#>  2 LAURA      2     0       2      2         2       2       2     2     2     2
#>  3 THER…      2     2       0      2         2       2       2     2     2     2
#>  4 BREN…      2     2       2      0         2       2       2     2     2     2
#>  5 CHAR…      2     2       2      2         0       2       2     4     2     2
#>  6 FRAN…      2     2       2      2         2       0       2     2     2     2
#>  7 ELEA…      2     2       2      2         2       2       0     2     2     2
#>  8 PEARL      2     2       2      2         4       2       2     0     2     2
#>  9 RUTH       2     2       2      2         2       2       2     2     0     2
#> 10 VERNE      2     2       2      2         2       2       2     2     2     0
#> # ℹ 22 more rows
#> # ℹ 22 more variables: MYRA <dbl>, KATHERINE <dbl>, SYLVIA <dbl>, NORA <dbl>,
#> #   HELEN <dbl>, DOROTHY <dbl>, OLIVIA <dbl>, FLORA <dbl>, E1 <dbl>, E2 <dbl>,
#> #   E3 <dbl>, E4 <dbl>, E5 <dbl>, E6 <dbl>, E7 <dbl>, E8 <dbl>, E9 <dbl>,
#> #   E10 <dbl>, E11 <dbl>, E12 <dbl>, E13 <dbl>, E14 <dbl>
…
