Functions to play games on networks — play • migraph
…
#> 8         0.178        0.178       0.178          0.178           0.178
#> # ℹ 27 more variables: `Carol Barner-Barry` <dbl>, `Gary Coombs` <dbl>,
#> #   `Russ Bernard` <dbl>, `John Boyd` <dbl>, `Ron Burt` <dbl>,
#> #   `Pat Doreian` <dbl>, `Claude Fischer` <dbl>, `Brian Foster` <dbl>,
#> #   `Mark Granovetter` <dbl>, `Maureen Hallinan` <dbl>, `Paul Holland` <dbl>,
#> #   `Jack Hunter` <dbl>, `Davor Jedlicka` <dbl>, `Charles Kadushin` <dbl>,
#> #   `Ed Laumann` <dbl>, `Sam Leinhardt` <dbl>, `Joel Levine` <dbl>,
#> #   `Nan Lin` <dbl>, `Nick Mullins` <dbl>, `Don Ploch` <dbl>, …
  startValues <- rbinom(100,1,prob = 0.5)
  startValues[sample(seq_len(100), round(100*0.2))] <- NA
  latticeEg <- manynet::create_lattice(100)
  latticeEg <- manynet::add_node_attribute(latticeEg, "startValues", startValues)
  latticeEg
#> # A undirected network with 100 nodes and 342 ties
#> # A tibble: 100 × 1
#>   startValues
#>         <int>
#> 1          NA
#> 2          NA
#> 3           0
#> 4           0
#> 5           1
#> 6          NA
#> # ℹ 94 more rows
#> # A tibble: 342 × 2
#>    from    to
#>   <int> <int>
#> 1     1     2
#> 2     1    11
#> 3     1    12
#> 4     2     3
#> 5     2    11
#> 6     2    12
#> # ℹ 336 more rows
  play_segregation(latticeEg, "startValues", 0.5)
#> [1] "Moving node 20 to node 57"
#> [1] "Moving node 23 to node 98"
#> [1] "Moving node 74 to node 48"
#> [1] "Moving node 81 to node 64"
#> [1] "Moving node 96 to node 41"
#> # A undirected network with 100 nodes and 342 ties
#> # A tibble: 100 × 1
#>   startValues
#>         <int>
#> 1          NA
#> 2          NA
#> 3           0
#> 4           0
#> 5           1
#> 6          NA
#> # ℹ 94 more rows
#> # A tibble: 342 × 2
#>    from    to
#>   <int> <int>
#> 1     1     2
#> 2     1    11
#> 3     1    12
#> 4     2     3
#> 5     2    11
#> 6     2    12
#> # ℹ 336 more rows
…
