1. Data • migraph
…
#> PEARL      0  0  0  0  0  1  0  1  1   0   0   0   0   0
#> RUTH       0  0  0  0  1  0  1  1  1   0   0   0   0   0
#> VERNE      0  0  0  0  0  0  1  1  1   0   0   1   0   0
#> MYRA       0  0  0  0  0  0  0  1  1   1   0   1   0   0
#> KATHERINE  0  0  0  0  0  0  0  1  1   1   0   1   1   1
#> SYLVIA     0  0  0  0  0  0  1  1  1   1   0   1   1   1
#> NORA       0  0  0  0  0  1  1  0  1   1   1   1   1   1
#> HELEN      0  0  0  0  0  0  1  1  0   1   1   1   1   1
#> DOROTHY    0  0  0  0  0  0  0  1  1   1   0   1   0   0
#> OLIVIA     0  0  0  0  0  0  0  0  1   0   1   0   0   0
#> FLORA      0  0  0  0  0  0  0  0  1   0   1   0   0   0
# this is an incidence matrix since it is a two-mode network
# if it were a one-mode network, the function would return an adjacency matrix
as_edgelist(ison_southern_women) # an edgelist data frame/tibble
#> # A tibble: 93 × 2
#>    from   to   
#>    <chr>  <chr>
#>  1 EVELYN E1   
#>  2 EVELYN E2   
#>  3 EVELYN E3   
#>  4 EVELYN E4   
#>  5 EVELYN E5   
#>  6 EVELYN E6   
#>  7 EVELYN E8   
#>  8 EVELYN E9   
#>  9 LAURA  E1   
#> 10 LAURA  E2   
#> # … with 83 more rows
…
